Project 1
…
## The following objects are masked from 'package:dplyr':
## 
##     between, first, last

#Reading in the data
breweries <- read.csv("Breweries.csv",header=TRUE)
beer <- read.csv("Beers.csv",header=TRUE)

#count of breweries by state
breweries %>% count(State)

## # A tibble: 51 x 2
##    State     n
##    <fct> <int>
##  1 " AK"     7
##  2 " AL"     3
##  3 " AR"     2
##  4 " AZ"    11
##  5 " CA"    39
##  6 " CO"    47
##  7 " CT"     8
##  8 " DC"     1
##  9 " DE"     2
## 10 " FL"    15
## #  with 41 more rows
…
#barplot of alcohol content and international bitterness by state - INCOMPLETE
#finding median values
beerbrew %>% group_by(State) %>% summarize(median(ABV, na.rm=TRUE))

## # A tibble: 51 x 2
##    State `median(ABV, na.rm = TRUE)`
##    <fct>                       <dbl>
##  1 " AK"                      0.056 
##  2 " AL"                      0.06  
##  3 " AR"                      0.052 
##  4 " AZ"                      0.055 
##  5 " CA"                      0.058 
##  6 " CO"                      0.0605
##  7 " CT"                      0.06  
##  8 " DC"                      0.0625
##  9 " DE"                      0.055 
## 10 " FL"                      0.057 
## #  with 41 more rows
…
